1920 1919 0 0
1912 1923 220 4
1908 1925 223 8
1899 1928 240 12
1879 1934 287 16
1870 1942 389 20
1864 1941 339 24
1850 1941 354 28
1831 1952 337 32
1819 1966 352 36
1796 1978 381 40
1775 1996 482 44
1757 2014 367 48
1732 2041 416 52
1703 2074 438 56
1676 2124 483 60
1657 2172 348 64
1626 2226 452 68
1599 2286 422 72
1570 2343 379 76
1550 2405 426 80
1529 2472 391 84
1504 2517 480 88
1502 2558 433 92
1498 2593 451 96
1494 2623 418 100
1498 2644 420 104
1510 2664 424 108
1533 2682 386 112
1560 2688 402 116
1587 2686 352 120
1626 2685 279 124
1661 2666 335 128
1703 2647 363 132
1746 2599 407 136
1800 2567 455 140
1846 2527 472 144
1893 2480 496 148
1941 2431 510 152
1988 2383 517 156
2038 2330 527 160
2092 2258 422 164
2141 2205 471 168
2185 2153 490 172
2226 2103 546 176
2263 2058 552 180
2301 2011 435 184
2330 1961 528 188
2365 1923 501 192
2386 1892 513 196
2404 1867 556 200
2412 1851 556 204
2414 1839 608 208
2412 1837 644 212
2414 1833 607 216
2402 1840 556 220
2381 1855 365 224
2355 1876 370 228
2309 1911 375 232
2276 1943 421 236
2235 1998 477 240
2177 2049 456 244
2133 2095 478 248
2092 2148 482 252
2052 2202 490 256
2003 2256 472 260
1957 2316 504 264
1910 2393 460 268
1868 2454 432 272
1827 2506 427 276
1798 2564 445 280
1767 2615 457 284
1752 2663 423 288
1730 2718 441 292
1713 2755 414 296
1707 2790 466 300
1705 2824 433 304
1703 2851 466 308
1705 2877 336 312
1705 2902 424 316
1707 2927 384 320
1711 2940 445 324
1709 2950 428 328
1709 2957 463 332
1705 2961 478 336
1703 2964 495 340
1707 2964 507 344
1709 2965 515 348
1709 2965 529 352
1709 2966 531 356
1709 2966 549 360
1709 2967 550 364
1705 2966 490 368
1701 2962 469 372
1697 2954 426 376
1697 2941 304 380
1680 2926 333 384
1666 2916 263 388
1661 2909 337 392
1647 2900 290 396
1637 2891 231 400
1624 2885 271 404
1614 2883 272 408
1606 2879 399 412
1595 2879 423 416
1591 2880 336 420
1575 2893 301 424
1564 2891 288 428
1552 2899 300 432
1546 2911 256 436
1529 2927 282 440
1519 2941 286 444
1513 2951 312 448
1494 2968 309 452
1496 2978 219 456
1490 2989 222 460
1484 3000 262 464
1477 3005 251 468
1473 3008 253 472
1467 3014 317 476
1471 3017 261 480
1469 3018 314 484
1465 3019 331 488
1463 3021 368 492
1459 3021 388 496
1461 3020 391 500
1453 3018 387 504
1453 3018 348 508
1450 3014 372 512
1446 3011 367 516
1448 3001 282 520
1444 2993 302 524
1444 2978 238 528
1450 2964 184 532
1450 2948 269 536
1450 2937 257 540
1463 2922 160 544
1467 2926 284 548
1475 2911 254 552
1486 2905 295 556
1492 2898 282 560
1502 2893 293 564
1510 2893 271 568
1527 2889 268 572
1537 2882 253 576
1556 2877 339 580
1566 2875 309 584
1579 2872 389 588
1595 2873 358 592
1612 2867 357 596
1628 2865 348 600
1645 2861 355 604
1670 2856 320 608
1695 2846 376 612
1713 2845 397 616
1734 2841 423 620
1752 2835 414 624
1769 2830 471 628
1790 2825 455 632
1806 2824 485 636
1823 2820 516 640
1837 2822 495 644
1854 2824 483 648
1868 2828 473 652
1881 2831 470 656
1897 2842 477 660
1912 2854 515 664
1926 2865 508 668
1937 2876 460 672
1959 2888 449 676
1976 2899 448 680
2001 2913 461 684
2024 2922 476 688
2048 2931 449 692
2069 2938 487 696
2094 2942 476 700
2123 2941 441 704
2143 2944 465 708
2179 2944 479 712
2199 2935 422 716
2216 2944 481 720
2226 2945 490 724
2247 2950 454 728
2253 2957 511 732
2257 2960 507 736
2261 2966 489 740
2263 2974 458 744
2268 2983 382 748
2266 2996 350 752
2263 3010 265 756
2259 3027 284 760
2255 3040 162 764
2249 3053 196 768
2243 3060 214 772
2243 3066 184 776
2241 3071 241 780
2243 3073 304 784
2253 3075 226 788
2280 3078 126 792
2307 3071 125 796
2336 3058 59 800
2363 3038 75 804
2398 3007 82 808
2431 2981 172 812
2481 2946 161 816
2512 2916 209 820
2545 2883 314 824
2582 2856 241 828
2607 2832 286 832
2634 2812 294 836
2663 2790 400 840
2683 2776 406 844
2694 2764 446 848
2702 2755 455 852
2710 2751 458 856
2717 2750 498 860
2719 2751 528 864
2712 2751 557 868
2719 2751 581 872
2719 2748 604 876
2719 2750 601 880
2717 2757 574 884
2710 2773 530 888
2698 2799 371 892
2681 2827 331 896
2669 2856 306 900
2661 2880 204 904
2642 2911 329 908
2628 2933 364 912
2609 2952 380 916
2609 2972 397 920
2607 2992 452 924
2607 3009 421 928
2617 3025 447 932
2623 3040 460 936
2630 3050 435 940
2646 3054 319 944
2659 3065 277 948
2669 3070 256 952
2686 3070 262 956
2702 3067 281 960
2723 3054 291 964
2748 3040 143 968
2781 3017 134 972
2803 3003 153 976
2826 2979 132 980
2853 2957 209 984
2872 2930 214 988
2899 2902 279 992
2928 2882 306 996
2952 2854 275 1000
2969 2834 330 1004
2985 2818 314 1008
2998 2807 312 1012
3008 2799 330 1016
3010 2791 466 1020
3014 2790 487 1024
3012 2790 506 1028
3014 2792 530 1032
3012 2797 497 1036
3008 2807 432 1040
3002 2830 328 1044
2985 2864 338 1048
2975 2900 97 1052
2948 2932 280 1056
2938 2959 199 1060
2928 2977 199 1064
2923 3000 207 1068
2917 3026 315 1072
2925 3049 200 1076
2921 3063 303 1080
2932 3072 253 1084
2942 3076 215 1088
2973 3075 254 1092
3008 3074 121 1096
3050 3055 128 1100
3099 3023 200 1104
3149 2992 296 1108
3196 2956 314 1112
3230 2919 400 1116
3290 2883 454 1120
3343 2845 471 1124
3397 2795 506 1128
3439 2759 507 1132
3482 2728 545 1136
3521 2695 526 1140
3559 2666 524 1144
3594 2638 535 1148
3623 2620 535 1152
3643 2599 527 1156
3658 2589 505 1160
3664 2579 75 1164
3215 2525 0 1320
3225 2528 444 1324
3232 2530 489 1328
3238 2527 461 1332
3250 2530 330 1336
3263 2535 294 1340
3279 2541 319 1344
3283 2538 345 1348
3316 2535 380 1352
3341 2532 419 1356
3364 2516 415 1360
3405 2499 435 1364
3439 2478 491 1368
3472 2449 516 1372
3509 2424 508 1376
3540 2404 539 1380
3569 2379 551 1384
3592 2354 548 1388
3612 2332 548 1392
3639 2308 537 1396
3668 2278 580 1400
3689 2251 526 1404
3712 2227 562 1408
3730 2203 574 1412
3751 2180 509 1416
3774 2162 522 1420
3796 2136 511 1424
3815 2119 509 1428
3310 2911 0 1688
3308 2909 262 1692
3310 2908 256 1696
3308 2897 166 1700
3314 2899 186 1704
3314 2895 163 1708
3323 2889 203 1712
3323 2887 283 1716
3325 2885 365 1720
3333 2878 369 1724
3345 2877 355 1728
3356 2868 236 1732
3366 2863 298 1736
3385 2862 339 1740
3393 2856 358 1744
3407 2844 377 1748
3422 2842 343 1752
3441 2829 417 1756
3459 2813 453 1760
3486 2799 464 1764
3505 2781 443 1768
3530 2759 446 1772
3552 2742 492 1776
3579 2719 495 1780
3604 2696 492 1784
3635 2666 514 1788
3662 2643 545 1792
3685 2622 576 1796
3710 2599 525 1800
3730 2576 548 1804
3749 2557 564 1808
3770 2532 599 1812
3796 2513 547 1816
3811 2491 577 1820
3827 2475 589 1824
3844 2456 591 1828
3858 2442 614 1832
3869 2429 597 1836
3875 2417 617 1840
3883 2409 610 1844
3892 2403 628 1848
3896 2396 621 1852
3902 2393 643 1856
3904 2392 657 1860
3904 2389 690 1864
3908 2388 703 1868
3910 2387 709 1872
3912 2384 723 1876
3910 2387 723 1880
3910 2387 721 1884
3914 2388 720 1888
3918 2394 692 1892
3916 2403 646 1896
3906 2418 609 1900
3900 2442 529 1904
3887 2466 395 1908
3875 2495 318 1912
3856 2525 258 1916
3827 2563 319 1920
3803 2600 364 1924
3782 2633 368 1928
3755 2670 373 1932
3720 2706 439 1936
3693 2743 406 1940
3654 2785 424 1944
3631 2818 407 1948
3612 2843 439 1952
3600 2864 465 1956
3590 2880 431 1960
3579 2899 428 1964
3573 2913 460 1968
3567 2932 460 1972
3565 2943 470 1976
3563 2959 447 1980
3559 2971 436 1984
3559 2981 424 1988
3556 2996 445 1992
3565 3011 437 1996
3563 3022 473 2000
3571 3031 433 2004
3575 3040 420 2008
3583 3048 427 2012
3575 3056 453 2016
3602 3063 387 2020
3621 3065 382 2024
3633 3066 405 2028
3641 3066 397 2032
3660 3065 338 2036
3674 3058 322 2040
3697 3043 203 2044
3722 3023 222 2048
3747 3009 344 2052
3772 2983 397 2056
3792 2961 329 2060
3815 2935 369 2064
3838 2911 465 2068
3869 2887 418 2072
3896 2850 454 2076
3929 2819 456 2080
3966 2788 458 2084
4003 2753 515 2088
4036 2714 549 2092
4072 2684 539 2096
4115 2646 577 2100
4148 2623 540 2104
4171 2601 551 2108
4189 2582 575 2112
4206 2571 593 2116
4206 2566 608 2120
4225 2561 603 2124
4233 2558 619 2128
4235 2557 657 2132
4235 2555 668 2136
4233 2557 664 2140
4237 2564 636 2144
4229 2574 576 2148
4221 2600 535 2152
4208 2622 355 2156
4196 2642 200 2160
4183 2677 99 2164
4167 2708 56 2168
4156 2747 149 2172
4148 2774 246 2176
4140 2812 219 2180
4129 2845 204 2184
4123 2882 267 2188
4119 2916 226 2192
4113 2951 189 2196
4111 2975 52 2200
4115 3000 1 2204
4111 3020 28 2208
4125 3030 85 2212
4127 3045 13 2216
4136 3051 1 2220
4154 3047 1 2224
4156 3066 57 2228
4173 3064 147 2232
4185 3066 163 2236
4206 3066 219 2240
4221 3058 110 2244
4237 3043 81 2248
4256 3023 172 2252
4274 3003 146 2256
4299 2982 314 2260
4312 2959 238 2264
4338 2937 259 2268
4365 2912 267 2272
4388 2890 375 2276
4415 2865 290 2280
4444 2841 358 2284
4469 2819 359 2288
4492 2805 290 2292
4510 2789 343 2296
4523 2775 308 2300
4539 2767 392 2304
4558 2755 348 2308
4576 2751 383 2312
4597 2751 405 2316
4607 2746 404 2320
4620 2743 406 2324
4632 2745 421 2328
4640 2748 441 2332
4645 2757 445 2336
4655 2769 478 2340
4657 2785 456 2344
4655 2798 420 2348
4661 2813 276 2352
4655 2829 232 2356
4661 2851 179 2360
4657 2872 215 2364
4407 2413 0 2632
4405 2406 268 2636
4405 2398 322 2640
4403 2391 298 2644
4398 2379 277 2648
4392 2369 382 2652
4394 2359 415 2656
4386 2352 382 2660
4380 2340 384 2664
4369 2334 377 2668
4363 2326 443 2672
4357 2323 477 2676
4345 2324 515 2680
4345 2321 500 2684
4338 2319 533 2688
4338 2321 561 2692
4338 2321 560 2696
4336 2317 585 2700
4336 2318 596 2704
4332 2319 625 2708
4336 2317 627 2712
4336 2318 645 2716
4322 2319 670 2720
4332 2321 685 2724
4336 2325 653 2728
4326 2326 658 2732
4336 2328 648 2736
4336 2332 615 2740
4343 2338 634 2744
4343 2338 648 2748
4345 2341 645 2752
4349 2345 649 2756
4351 2347 648 2760
4355 2350 647 2764
4361 2350 646 2768
4363 2356 629 2772
4380 2355 580 2776
4388 2356 512 2780
4400 2349 413 2784
4411 2350 333 2788
4423 2350 153 2792
4252 2899 0 2976
4247 2901 266 2980
4249 2901 261 2984
4249 2902 289 2988
4249 2904 292 2992
4252 2906 276 2996
4254 2908 274 3000
4252 2910 323 3004
4254 2918 298 3008
4256 2922 317 3012
4260 2928 307 3016
4264 2930 293 3020
4268 2940 356 3024
4281 2943 348 3028
4285 2949 373 3032
4291 2957 379 3036
4297 2961 344 3040
4312 2960 314 3044
4324 2962 270 3048
4336 2960 274 3052
4357 2961 286 3056
4372 2951 271 3060
4392 2945 255 3064
4415 2935 327 3068
4434 2923 371 3072
4460 2906 429 3076
4498 2889 420 3080
4525 2866 423 3084
4545 2842 480 3088
4599 2820 476 3092
4630 2794 449 3096
4669 2770 512 3100
4703 2746 477 3104
4740 2713 494 3108
4773 2689 519 3112
4802 2662 520 3116
4827 2640 550 3120
4854 2612 531 3124
4880 2585 543 3128
4905 2552 567 3132
4926 2527 530 3136
4945 2499 543 3140
4961 2470 544 3144
4976 2442 571 3148
4988 2413 558 3152
5000 2383 589 3156
5011 2360 560 3160
5015 2344 556 3164
5021 2332 592 3168
5025 2321 613 3172
5023 2312 630 3176
5023 2304 661 3180
5013 2297 657 3184
5005 2297 625 3188
4996 2299 591 3192
4986 2297 570 3196
4969 2306 525 3200
4943 2321 470 3204
4920 2344 357 3208
4880 2379 244 3212
4851 2415 333 3216
4814 2462 401 3220
4758 2500 430 3224
4736 2545 407 3228
4684 2592 414 3232
4634 2654 401 3236
4574 2703 403 3240
4543 2748 375 3244
4512 2789 450 3248
4485 2831 416 3252
4463 2874 347 3256
4444 2916 348 3260
4427 2966 310 3264
4409 3004 305 3268
4400 3037 383 3272
4392 3061 416 3276
4386 3077 345 3280
4388 3093 344 3284
4388 3107 372 3288
4384 3130 422 3292
4388 3143 449 3296
4390 3153 478 3300
4394 3160 453 3304
4396 3171 419 3308
4409 3174 432 3312
4423 3186 440 3316
4452 3193 427 3320
4483 3195 347 3324
4529 3190 391 3328
4568 3179 451 3332
4620 3168 472 3336
4676 3150 470 3340
4758 3126 509 3344
4827 3100 524 3348
4909 3071 539 3352
4990 3036 539 3356
5077 2997 585 3360
5168 2956 569 3364
5288 2900 588 3368
5387 2854 576 3372
5487 2806 574 3376
5582 2754 579 3380
5681 2704 563 3384
5776 2656 588 3388
5865 2610 544 3392
5973 2556 538 3396
6053 2517 499 3400
6132 2481 539 3404
6194 2448 491 3408
6258 2420 416 3412
