2274 1853 0 0
2276 1846 1 4
2276 1842 19 8
2276 1849 30 12
2272 1844 40 16
2270 1843 147 20
2255 1850 84 24
2241 1850 224 28
2237 1872 250 32
2216 1884 249 36
2203 1912 219 40
2191 1937 327 44
2166 1965 274 48
2152 1994 407 52
2139 2029 343 56
2106 2071 398 60
2083 2103 413 64
2071 2136 384 68
2050 2172 423 72
2036 2205 382 76
2021 2238 367 80
2005 2268 311 84
1997 2308 397 88
1986 2337 398 92
1988 2366 398 96
1986 2385 366 100
1984 2404 460 104
1990 2424 465 108
1997 2445 377 112
2001 2459 384 116
2005 2471 412 120
2024 2482 379 124
2036 2490 416 128
2055 2492 342 132
2071 2491 332 136
2098 2490 368 140
2127 2488 314 144
2158 2468 371 148
2189 2455 344 152
2224 2428 289 156
2255 2403 367 160
2305 2369 344 164
2338 2335 432 168
2373 2299 375 172
2408 2267 371 176
2441 2231 402 180
2477 2198 349 184
2506 2159 408 188
2541 2115 448 192
2568 2084 419 196
2594 2052 461 200
2613 2026 495 204
2634 2004 426 208
2652 1983 425 212
2665 1959 435 216
2673 1949 497 220
2679 1938 491 224
2683 1931 547 228
2683 1927 567 232
2683 1927 591 236
2686 1923 607 240
2686 1925 607 244
2683 1931 569 248
2673 1940 454 252
2663 1964 353 256
2644 1996 387 260
2626 2028 277 264
2590 2069 343 268
2568 2098 409 272
2547 2138 437 276
2520 2171 365 280
2497 2212 440 284
2474 2248 441 288
2462 2282 409 292
2439 2324 475 296
2421 2358 468 300
2406 2392 465 304
2396 2427 514 308
2386 2460 498 312
2371 2494 524 316
2352 2533 455 320
2344 2570 475 324
2334 2609 466 328
2319 2651 500 332
2311 2688 418 336
2305 2729 416 340
2286 2772 442 344
2270 2817 437 348
2251 2857 346 352
2230 2898 317 356
2220 2940 379 360
2208 2976 327 364
2189 3017 358 368
2168 3056 370 372
2152 3083 281 376
2143 3106 361 380
2127 3128 367 384
2119 3138 398 388
2110 3151 351 392
2104 3155 324 396
2100 3161 339 400
2096 3161 331 404
2086 3160 356 408
2081 3153 291 412
2075 3141 203 416
2063 3126 86 420
2046 3096 119 424
2032 3072 160 428
2021 3052 225 432
2017 3025 216 436
2007 3001 212 440
1999 2978 216 444
1986 2961 194 448
1972 2934 309 452
1970 2921 252 456
1959 2902 318 460
1966 2899 275 464
1968 2893 309 468
1978 2884 295 472
1970 2874 317 476
1978 2865 292 480
1990 2857 263 484
1997 2849 312 488
2013 2840 259 492
2030 2838 201 496
2046 2830 355 500
2069 2824 349 504
2096 2819 352 508
2117 2812 333 512
2146 2807 384 516
2175 2802 382 520
2201 2795 351 524
2241 2785 440 528
2278 2780 455 532
2313 2770 414 536
2348 2763 462 540
2377 2755 423 544
2408 2753 456 548
2439 2750 426 552
2470 2751 455 556
2491 2752 484 560
2510 2753 466 564
2520 2761 488 568
2532 2765 477 572
2541 2777 508 576
2545 2788 437 580
2551 2799 353 584
2553 2813 366 588
2557 2830 255 592
2555 2849 289 596
2553 2863 336 600
2541 2876 197 604
2549 2898 209 608
2543 2906 82 612
2530 2922 262 616
2537 2931 243 620
2534 2937 324 624
2534 2942 367 628
2537 2950 327 632
2537 2956 370 636
2534 2964 344 640
2526 2970 353 644
2537 2975 331 648
2545 2984 333 652
2549 2983 327 656
2566 2989 320 660
2570 2996 314 664
2588 2995 316 668
2594 2996 324 672
2607 2998 299 676
2628 3003 307 680
2640 2999 271 684
2654 2996 261 688
2673 2992 255 692
2683 2982 242 696
2700 2971 278 700
2717 2964 368 704
2721 2949 258 708
2745 2930 243 712
2764 2919 251 716
2777 2901 334 720
2793 2884 340 724
2808 2862 306 728
2822 2844 283 732
2839 2822 384 736
2859 2795 357 740
2874 2776 408 744
2890 2746 408 748
2899 2746 437 752
2909 2737 441 756
2911 2732 481 760
2919 2729 487 764
2919 2731 520 768
2919 2728 539 772
2921 2729 549 776
2919 2732 521 780
2921 2737 470 784
2921 2748 449 788
2917 2769 359 792
2919 2791 217 796
2911 2814 237 800
2905 2838 203 804
2901 2867 311 808
2859 2882 228 812
2884 2918 243 816
2882 2939 232 820
2876 2959 197 824
2872 2981 225 828
2870 3001 263 832
2878 3020 275 836
2876 3039 259 840
2874 3054 288 844
2878 3063 276 848
2886 3066 316 852
2878 3069 327 856
2880 3074 317 860
2884 3074 330 864
2888 3076 316 868
2892 3078 335 872
2903 3077 311 876
2915 3075 182 880
2930 3063 151 884
2957 3044 10 888
2979 3020 1 892
3012 2992 81 896
3045 2965 99 900
3083 2935 139 904
3114 2907 156 908
3147 2882 260 912
3176 2860 209 916
3211 2839 217 920
3228 2825 253 924
3250 2816 329 928
3261 2814 296 932
3267 2810 343 936
3269 2812 398 940
3275 2813 414 944
3275 2825 396 948
3271 2842 295 952
3250 2866 278 956
3244 2895 141 960
3228 2927 102 964
3209 2952 178 968
3180 2985 104 972
3168 3016 221 976
3145 3034 246 980
3136 3061 249 984
3126 3083 272 988
3122 3099 263 992
3118 3108 286 996
3118 3116 365 1000
3120 3120 356 1004
3124 3118 372 1008
3128 3118 325 1012
3141 3111 205 1016
3163 3095 143 1020
3192 3051 40 1024
3232 3033 42 1028
3259 2995 105 1032
3290 2957 166 1036
3337 2926 89 1040
3385 2884 190 1044
3441 2834 117 1048
3360 2521 0 1200
3368 2521 423 1204
3368 2521 390 1208
3364 2519 258 1212
3385 2514 278 1216
3395 2510 327 1220
3410 2501 312 1224
3430 2490 260 1228
3451 2480 328 1232
3476 2466 420 1236
3505 2448 466 1240
3542 2433 423 1244
3594 2400 455 1248
3637 2370 480 1252
3685 2339 488 1256
3732 2305 496 1260
3782 2271 508 1264
3823 2236 461 1268
3865 2202 447 1272
3912 2164 457 1276
3941 2139 292 1280
3277 3174 0 1476
3271 3176 250 1480
3271 3175 293 1484
3273 3168 105 1488
3277 3138 127 1492
3283 3125 215 1496
3298 3107 69 1500
3314 3097 140 1504
3335 3074 203 1508
3366 3050 230 1512
3399 3029 302 1516
3436 2997 377 1520
3480 2966 429 1524
3525 2933 418 1528
3581 2886 492 1532
3643 2851 403 1536
3699 2812 387 1540
3747 2773 436 1544
3801 2733 459 1548
3844 2699 396 1552
3883 2668 440 1556
3931 2635 504 1560
3962 2613 423 1564
3991 2593 374 1568
4018 2571 421 1572
4043 2556 413 1576
4063 2535 471 1580
4084 2517 498 1584
4103 2505 524 1588
4109 2497 529 1592
4111 2493 543 1596
4111 2494 583 1600
4111 2492 591 1604
4111 2490 593 1608
4103 2488 559 1612
4098 2489 518 1616
4080 2497 497 1620
4061 2504 399 1624
4036 2522 169 1628
3997 2546 165 1632
3962 2581 242 1636
3910 2623 286 1640
3858 2668 352 1644
3817 2712 389 1648
3780 2756 425 1652
3741 2792 414 1656
3722 2828 425 1660
3705 2868 468 1664
3701 2897 447 1668
3699 2922 408 1672
3701 2945 431 1676
3712 2963 356 1680
3712 2982 318 1684
3720 2997 311 1688
3718 3010 316 1692
3734 3018 284 1696
3734 3025 316 1700
3738 3032 324 1704
3738 3039 327 1708
3743 3041 343 1712
3741 3044 336 1716
3743 3048 377 1720
3743 3050 375 1724
3738 3052 405 1728
3738 3053 389 1732
3743 3053 407 1736
3741 3053 423 1740
3741 3054 424 1744
3741 3054 436 1748
3743 3056 453 1752
3741 3058 498 1756
3747 3055 444 1760
3755 3056 403 1764
3770 3038 108 1768
3807 3016 23 1772
3825 2987 6 1776
3867 2960 54 1780
3904 2926 28 1784
3943 2890 149 1788
3976 2857 1 1792
4024 2817 82 1796
4057 2798 96 1800
4092 2774 74 1804
4117 2764 236 1808
4146 2743 285 1812
4169 2732 327 1816
4183 2721 393 1820
4196 2719 469 1824
4196 2718 499 1828
4198 2719 526 1832
4198 2719 534 1836
4194 2723 510 1840
4183 2734 480 1844
4171 2754 445 1848
4171 2788 331 1852
4148 2816 127 1856
4113 2851 231 1860
4092 2885 306 1864
4061 2920 378 1868
4024 2965 397 1872
4005 2995 459 1876
3987 3021 463 1880
3978 3044 471 1884
3974 3062 440 1888
3968 3077 453 1892
3974 3092 475 1896
3983 3100 430 1900
3999 3102 372 1904
4012 3098 336 1908
4034 3084 227 1912
4065 3070 102 1916
4096 3045 36 1920
4140 3006 50 1924
4173 2985 207 1928
4204 2957 202 1932
4237 2937 332 1936
4276 2907 348 1940
4309 2879 371 1944
4345 2853 384 1948
4388 2824 486 1952
4411 2806 436 1956
4434 2788 469 1960
4452 2775 462 1964
4465 2767 499 1968
4479 2756 511 1972
4487 2752 530 1976
4496 2745 544 1980
4500 2742 578 1984
4518 2739 476 1988
4510 2730 1 1992
4322 2589 0 2132
4326 2586 398 2136
4324 2586 384 2140
4324 2586 379 2144
4328 2587 363 2148
4330 2586 348 2152
4332 2583 364 2156
4334 2582 350 2160
4343 2577 306 2164
4349 2574 293 2168
4353 2565 327 2172
4374 2553 341 2176
4380 2548 405 2180
4378 2544 461 2184
4382 2542 496 2188
4388 2542 510 2192
4384 2539 508 2196
4390 2538 522 2200
4394 2537 549 2204
4396 2538 592 2208
4394 2535 608 2212
4394 2535 619 2216
4394 2536 618 2220
4386 2537 576 2224
4384 2542 509 2228
4380 2547 300 2232
4142 3055 0 2376
4140 3054 497 2380
4144 3053 490 2384
4146 3050 441 2388
4152 3043 288 2392
4158 3039 279 2396
4165 3032 220 2400
4179 3019 102 2404
4198 3001 169 2408
4210 2981 227 2412
4231 2964 198 2416
4270 2945 254 2420
4291 2926 329 2424
4326 2907 340 2428
4359 2884 423 2432
4390 2858 446 2436
4417 2836 458 2440
4458 2807 502 2444
4485 2786 433 2448
4510 2765 486 2452
4535 2746 453 2456
4560 2728 503 2460
4578 2707 437 2464
4603 2688 459 2468
4630 2664 515 2472
4649 2645 536 2476
4669 2632 497 2480
4684 2614 514 2484
4696 2601 514 2488
4715 2588 507 2492
4725 2572 525 2496
4736 2561 564 2500
4738 2554 572 2504
4750 2546 546 2508
4756 2541 566 2512
4756 2533 548 2516
4756 2526 563 2520
4758 2516 558 2524
4758 2508 550 2528
4750 2497 560 2532
4742 2487 558 2536
4729 2480 481 2540
4715 2472 442 2544
4688 2466 441 2548
4655 2476 304 2552
4616 2483 302 2556
4578 2508 337 2560
4539 2531 382 2564
4504 2567 416 2568
4446 2602 420 2572
4392 2646 428 2576
4353 2680 423 2580
4326 2715 420 2584
4301 2754 476 2588
4293 2795 476 2592
4278 2835 413 2596
4291 2888 466 2600
4287 2930 420 2604
4297 2972 417 2608
4307 3009 369 2612
4316 3045 385 2616
4330 3081 385 2620
4341 3118 330 2624
4357 3161 386 2628
4374 3187 404 2632
4396 3206 407 2636
4427 3218 414 2640
4467 3217 330 2644
4518 3204 351 2648
4583 3172 370 2652
4665 3129 403 2656
4742 3084 434 2660
4841 3029 471 2664
4938 2966 469 2668
5036 2900 473 2672
5156 2832 508 2676
5296 2745 483 2680
5412 2674 501 2684
5547 2608 471 2688
5683 2539 404 2692
