1910 1794 0 0
1897 1786 32 4
1891 1784 114 8
1887 1784 313 12
1881 1780 335 16
1872 1779 210 20
1866 1791 167 24
1850 1793 239 28
1839 1793 302 32
1821 1816 305 36
1794 1829 317 40
1792 1859 340 44
1761 1884 363 48
1744 1917 373 52
1724 1951 404 56
1699 1997 414 60
1682 2039 413 64
1659 2087 396 68
1639 2146 365 72
1618 2195 398 76
1606 2241 402 80
1601 2283 343 84
1585 2323 356 88
1581 2359 385 92
1583 2402 427 96
1581 2433 446 100
1587 2459 372 104
1597 2483 325 108
1608 2504 352 112
1626 2523 426 116
1649 2538 423 120
1678 2545 350 124
1707 2544 351 128
1738 2543 348 132
1769 2530 367 136
1808 2509 416 140
1848 2480 455 144
1899 2437 466 148
1943 2398 497 152
1995 2357 467 156
2036 2310 470 160
2083 2256 482 164
2133 2201 473 168
2179 2146 465 172
2228 2071 491 176
2276 2017 496 180
2317 1960 440 184
2352 1906 492 188
2396 1856 439 192
2421 1806 513 196
2454 1754 488 200
2479 1713 491 204
2493 1680 488 208
2499 1651 509 212
2508 1636 510 216
2503 1625 552 220
2499 1614 534 224
2483 1619 458 228
2460 1623 353 232
2435 1633 398 236
2400 1658 250 240
2357 1688 369 244
2321 1718 369 248
2270 1769 409 252
2224 1821 430 256
2177 1876 411 260
2135 1938 446 264
2083 1997 423 268
2046 2071 473 272
2017 2135 443 276
1970 2213 485 280
1955 2266 463 284
1935 2315 509 288
1924 2359 485 292
1922 2401 540 296
1918 2440 541 300
1922 2482 494 304
1928 2516 529 308
1924 2543 462 312
1932 2571 467 316
1930 2603 525 320
1935 2630 461 324
1935 2662 468 328
1937 2700 420 332
1937 2735 409 336
1932 2776 466 340
1932 2812 365 344
1930 2851 354 348
1920 2885 326 352
1904 2931 318 356
1887 2967 284 360
1868 3001 293 364
1856 3037 341 368
1837 3056 255 372
1823 3078 232 376
1812 3091 321 380
1808 3100 249 384
1798 3106 360 388
1790 3104 366 392
1788 3106 358 396
1779 3107 387 400
1777 3103 373 404
1775 3098 294 408
1761 3083 232 412
1759 3071 266 416
1752 3048 159 420
1748 3018 150 424
1748 2996 193 428
1744 2971 191 432
1736 2941 232 436
1736 2918 251 440
1724 2904 223 444
1717 2888 270 448
1697 2872 328 452
1690 2862 281 456
1686 2855 264 460
1674 2850 254 464
1655 2846 301 468
1641 2853 284 472
1620 2851 281 476
1599 2871 323 480
1591 2876 390 484
1568 2891 312 488
1562 2897 283 492
1556 2905 309 496
1544 2910 357 500
1544 2916 387 504
1541 2917 426 508
1541 2918 464 512
1544 2917 462 516
1544 2915 465 520
1550 2916 389 524
1560 2912 329 528
1575 2900 372 532
1589 2889 269 536
1616 2867 163 540
1637 2858 219 544
1645 2847 192 548
1655 2830 201 552
1670 2814 344 556
1682 2809 361 560
1695 2794 304 564
1709 2778 318 568
1728 2774 352 572
1740 2765 382 576
1744 2757 402 580
1759 2755 343 584
1775 2748 380 588
1790 2751 413 592
1804 2753 427 596
1821 2748 374 600
1833 2755 414 604
1848 2766 437 608
1862 2775 416 612
1879 2788 355 616
1891 2814 400 620
1899 2832 406 624
1906 2851 374 628
1914 2871 387 632
1916 2895 340 636
1926 2915 398 640
1930 2941 416 644
1943 2955 417 648
1959 2966 342 652
1970 2982 334 656
1986 2993 377 660
2011 2999 347 664
2034 3001 315 668
2069 2995 297 672
2104 2983 267 676
2135 2965 256 680
2164 2946 263 684
2201 2921 280 688
2237 2896 274 692
2276 2866 302 696
2305 2839 279 700
2334 2819 312 704
2365 2796 274 708
2394 2780 262 712
2408 2764 296 716
2431 2748 299 720
2441 2736 320 724
2450 2734 408 728
2456 2730 426 732
2458 2730 472 736
2460 2732 506 740
2456 2732 512 744
2454 2735 478 748
2454 2740 430 752
2452 2753 434 756
2446 2766 227 760
2437 2795 204 764
2419 2820 210 768
2408 2844 219 772
2392 2874 237 776
2388 2895 260 780
2381 2920 228 784
2373 2943 266 788
2365 2962 230 792
2365 2979 186 796
2361 3007 283 800
2371 3021 319 804
2373 3034 259 808
2388 3040 232 812
2396 3050 233 816
2408 3056 266 820
2423 3060 268 824
2437 3056 219 828
2452 3050 227 832
2468 3037 162 836
2483 3022 116 840
2497 3001 132 844
2518 2987 40 848
2526 2963 235 852
2545 2941 222 856
2566 2919 282 860
2588 2897 268 864
2609 2874 240 868
2621 2852 204 872
2644 2833 229 876
2671 2803 363 880
2694 2780 413 884
2710 2762 331 888
2727 2753 379 892
2735 2745 389 896
2743 2740 427 900
2756 2741 378 904
2762 2741 463 908
2770 2742 502 912
2777 2746 499 916
2781 2755 461 920
2783 2768 449 924
2785 2785 314 928
2774 2809 229 932
2772 2834 184 936
2758 2864 116 940
2750 2885 135 944
2739 2917 175 948
2731 2948 239 952
2729 2971 144 956
2725 2992 70 960
2717 3011 188 964
2714 3027 140 968
2717 3036 160 972
2721 3042 290 976
2725 3043 311 980
2739 3051 143 984
2748 3052 140 988
2760 3055 121 992
2768 3049 100 996
2781 3040 43 1000
2799 3038 64 1004
2816 3011 36 1008
2830 3006 84 1012
2851 2988 117 1016
2880 2971 167 1020
2899 2942 191 1024
2932 2915 201 1028
2954 2888 265 1032
2996 2855 192 1036
3014 2832 228 1040
3041 2813 230 1044
3070 2796 351 1048
3091 2783 311 1052
3110 2772 336 1056
3122 2763 400 1060
3130 2762 428 1064
3132 2757 464 1068
3134 2758 505 1072
3136 2761 503 1076
3136 2767 452 1080
3128 2776 378 1084
3124 2807 213 1088
3112 2834 192 1092
3099 2865 182 1096
3091 2884 106 1100
3068 2915 118 1104
3056 2934 92 1108
3039 2953 119 1112
3031 2973 241 1116
3037 2982 271 1120
3031 2986 294 1124
3033 2986 299 1128
3041 2984 226 1132
3052 2975 184 1136
3076 2957 141 1140
3114 2934 156 1144
3151 2916 140 1148
3176 2879 241 1152
3221 2841 311 1156
3267 2809 319 1160
3304 2758 420 1164
3368 2717 441 1168
3412 2677 433 1172
3455 2638 430 1176
3492 2600 408 1180
3536 2570 416 1184
3569 2541 460 1188
3614 2512 416 1192
3325 2391 0 1364
3321 2392 478 1368
3319 2394 507 1372
3321 2394 507 1376
3319 2391 513 1380
3321 2389 481 1384
3331 2387 462 1388
3352 2378 379 1392
3372 2359 361 1396
3401 2339 430 1400
3436 2306 329 1404
3478 2282 446 1408
3525 2250 523 1412
3571 2220 514 1416
3639 2179 500 1420
3687 2143 517 1424
3736 2107 471 1428
3786 2073 439 1432
3830 2044 438 1436
3871 2015 347 1440
3902 1986 149 1444
3242 2917 0 1660
3254 2898 208 1664
3279 2880 243 1668
3298 2846 242 1672
3327 2827 314 1676
3356 2799 341 1680
3381 2773 354 1684
3412 2741 440 1688
3441 2711 416 1692
3461 2684 478 1696
3503 2649 522 1700
3532 2630 492 1704
3556 2602 528 1708
3585 2574 563 1712
3616 2554 537 1716
3639 2527 556 1720
3668 2503 570 1724
3703 2476 531 1728
3726 2449 554 1732
3753 2423 530 1736
3782 2399 569 1740
3807 2380 593 1744
3834 2359 562 1748
3863 2334 565 1752
3885 2319 550 1756
3906 2306 559 1760
3923 2299 593 1764
3935 2288 596 1768
3956 2282 557 1772
3972 2278 543 1776
3991 2271 591 1780
4003 2271 596 1784
4014 2274 617 1788
4016 2273 629 1792
4018 2280 620 1796
4022 2283 596 1800
4014 2296 546 1804
4012 2315 517 1808
3999 2338 347 1812
3993 2367 268 1816
3960 2399 212 1820
3931 2426 222 1824
3904 2454 227 1828
3858 2501 341 1832
3819 2537 324 1836
3780 2583 315 1840
3730 2629 302 1844
3687 2678 277 1848
3637 2719 324 1852
3600 2774 391 1856
3571 2809 358 1860
3552 2847 355 1864
3534 2888 323 1868
3513 2923 423 1872
3509 2957 486 1876
3496 2983 382 1880
3486 3016 394 1884
3507 3043 390 1888
3513 3058 320 1892
3521 3076 228 1896
3525 3096 211 1900
3542 3121 194 1904
3546 3142 264 1908
3559 3159 256 1912
3575 3169 271 1916
3587 3177 205 1920
3596 3181 318 1924
3608 3182 266 1928
3600 3181 231 1932
3627 3176 162 1936
3637 3168 121 1940
3652 3150 109 1944
3672 3125 120 1948
3695 3102 1 1952
3716 3066 89 1956
3745 3012 127 1960
3772 2971 243 1964
3803 2921 171 1968
3838 2876 252 1972
3869 2832 326 1976
3896 2790 306 1980
3923 2752 356 1984
3947 2719 424 1988
3962 2701 407 1992
3972 2689 409 1996
3974 2682 466 2000
3978 2681 515 2004
3981 2679 531 2008
3981 2677 584 2012
3983 2676 619 2016
3983 2675 631 2020
3978 2681 592 2024
3970 2688 520 2028
3958 2711 345 2032
3937 2739 290 2036
3890 2779 169 2040
3883 2812 197 2044
3865 2846 230 2048
3846 2867 263 2052
3836 2904 183 2056
3823 2939 268 2060
3807 2983 271 2064
3803 3019 283 2068
3796 3051 174 2072
3788 3081 172 2076
3780 3104 68 2080
3778 3121 172 2084
3780 3129 80 2088
3780 3131 212 2092
3788 3129 39 2096
3803 3128 1 2100
3805 3120 139 2104
3854 3114 142 2108
3890 3085 82 2112
3918 3055 167 2116
3966 3029 215 2120
4020 2997 310 2124
4078 2960 316 2128
4140 2920 402 2132
4210 2882 400 2136
4276 2840 472 2140
4365 2791 472 2144
4436 2755 465 2148
4502 2725 472 2152
4556 2691 476 2156
4616 2675 470 2160
4661 2657 479 2164
4700 2638 479 2168
4734 2635 492 2172
4756 2629 480 2176
4760 2625 11 2180
4347 2491 0 2396
4345 2508 128 2400
4343 2508 171 2404
4349 2516 174 2408
4347 2522 287 2412
4343 2521 311 2416
4343 2524 314 2420
4345 2525 336 2424
4341 2528 355 2428
4338 2530 392 2432
4338 2533 438 2436
4341 2531 467 2440
4332 2534 501 2444
4347 2532 414 2448
4353 2523 410 2452
4345 2513 340 2456
4372 2502 1 2460
4134 2932 0 2612
4129 2957 280 2616
4129 2971 269 2620
4125 2985 180 2624
4123 2997 214 2628
4125 3004 246 2632
4121 3012 283 2636
4117 3023 331 2640
4121 3030 364 2644
4119 3044 368 2648
4127 3049 392 2652
4129 3053 396 2656
4129 3059 432 2660
4138 3061 412 2664
4152 3063 385 2668
4165 3069 357 2672
4175 3071 372 2676
4189 3066 326 2680
4208 3066 355 2684
4223 3054 221 2688
4256 3048 202 2692
4281 3031 220 2696
4305 3015 281 2700
4330 2997 258 2704
4363 2977 315 2708
4396 2952 330 2712
4432 2928 381 2716
4481 2894 436 2720
4523 2860 436 2724
4568 2823 445 2728
4612 2788 445 2732
4653 2748 443 2736
4680 2708 449 2740
4731 2656 473 2744
4775 2618 489 2748
4806 2577 510 2752
4833 2538 469 2756
4858 2499 527 2760
4878 2460 492 2764
4903 2421 541 2768
4920 2377 576 2772
4930 2348 510 2776
4932 2323 562 2780
4934 2300 592 2784
4930 2288 595 2788
4926 2272 552 2792
4911 2263 510 2796
4889 2259 505 2800
4860 2262 395 2804
4825 2273 356 2808
4779 2290 250 2812
4736 2325 240 2816
4692 2371 406 2820
4624 2429 457 2824
4564 2486 399 2828
4506 2548 390 2832
4448 2613 440 2836
4400 2690 489 2840
4357 2768 464 2844
4320 2871 454 2848
4291 2953 468 2852
4276 3032 445 2856
4270 3107 436 2860
4272 3176 377 2864
4278 3236 386 2868
4295 3294 422 2872
4328 3355 342 2876
4365 3389 232 2880
4417 3418 172 2884
4483 3434 244 2888
4562 3425 150 2892
4659 3394 291 2896
4754 3349 372 2900
4895 3279 408 2904
5011 3213 416 2908
5149 3140 487 2912
5282 3066 484 2916
5416 2987 473 2920
5567 2909 490 2924
5739 2810 448 2928
5880 2735 366 2932
6012 2662 269 2936
