1928 1667 0 0
1926 1672 1 4
1920 1688 59 8
1914 1694 81 12
1910 1709 137 16
1918 1732 273 20
1914 1751 273 24
1918 1778 236 28
1910 1791 339 32
1912 1821 355 36
1922 1849 333 40
1918 1874 321 44
1922 1909 404 48
1916 1945 430 52
1926 1976 361 56
1932 2008 434 60
1941 2040 390 64
1949 2068 423 68
1964 2091 414 72
1982 2118 365 76
1999 2137 420 80
2021 2154 404 84
2050 2162 397 88
2081 2169 448 92
2117 2168 301 96
2156 2162 374 100
2203 2156 455 104
2243 2143 371 108
2286 2125 364 112
2330 2105 367 116
2371 2080 353 120
2410 2057 383 124
2448 2024 503 128
2489 1997 459 132
2518 1971 471 136
2551 1943 395 140
2576 1920 470 144
2599 1890 486 148
2623 1862 487 152
2650 1826 438 156
2667 1796 440 160
2681 1764 473 164
2698 1736 486 168
2704 1700 496 172
2717 1673 517 176
2721 1645 387 180
2725 1619 455 184
2723 1593 458 188
2723 1575 437 192
2721 1558 359 196
2717 1538 387 200
2704 1524 435 204
2698 1518 373 208
2686 1504 434 212
2675 1499 403 216
2659 1500 450 220
2642 1501 404 224
2632 1511 251 228
2607 1521 347 232
2582 1543 325 236
2572 1562 308 240
2557 1589 370 244
2541 1613 350 248
2522 1647 385 252
2506 1681 402 256
2487 1731 477 260
2474 1773 516 264
2454 1816 563 268
2446 1855 521 272
2427 1909 540 276
2417 1962 532 280
2404 2036 534 284
2390 2095 473 288
2367 2157 594 292
2352 2219 569 296
2336 2281 553 300
2321 2347 547 304
2303 2406 557 308
2282 2486 559 312
2272 2542 538 316
2261 2593 530 320
2249 2646 548 324
2243 2693 538 328
2235 2743 537 332
2226 2787 520 336
2212 2838 534 340
2201 2874 531 344
2189 2909 513 348
2172 2940 503 352
2158 2970 553 356
2146 2998 538 360
2119 3034 578 364
2102 3053 551 368
2083 3072 534 372
2067 3094 523 376
2042 3110 523 380
2026 3126 528 384
2011 3136 529 388
1988 3148 528 392
1978 3157 539 396
1968 3166 554 400
1953 3175 549 404
1945 3183 536 408
1935 3196 545 412
1926 3215 521 416
1916 3228 490 420
1904 3243 485 424
1897 3256 490 428
1889 3268 499 432
1883 3280 523 436
1879 3293 499 440
1872 3308 488 444
1860 3320 530 448
1852 3326 521 452
1854 3335 528 456
1839 3340 487 460
1835 3346 476 464
1825 3350 506 468
1821 3352 515 472
1817 3356 515 476
1810 3355 525 480
1806 3353 561 484
1802 3353 542 488
1796 3347 525 492
1792 3339 517 496
1788 3333 484 500
1790 3319 476 504
1779 3309 473 508
1784 3300 441 512
1779 3286 442 516
1779 3271 426 520
1781 3265 407 524
1775 3258 426 528
1777 3253 419 532
1777 3246 396 536
1773 3240 411 540
1771 3231 412 544
1773 3227 402 548
1773 3225 389 552
1771 3224 395 556
1769 3220 405 560
1775 3220 418 564
1773 3219 423 568
1769 3218 439 572
1771 3216 434 576
1771 3214 442 580
1773 3213 450 584
1775 3206 441 588
1777 3201 387 592
1786 3190 308 596
1792 3175 371 600
1796 3163 345 604
1804 3154 323 608
1808 3143 337 612
1819 3136 331 616
1825 3121 341 620
1827 3111 378 624
1833 3107 375 628
1839 3103 381 632
1839 3099 423 636
1839 3094 456 640
1846 3087 417 644
1852 3085 435 648
1856 3081 403 652
1858 3077 409 656
1868 3072 384 660
1877 3067 382 664
1879 3061 387 668
1883 3058 430 672
1891 3050 421 676
1901 3043 417 680
1908 3039 448 684
1916 3036 466 688
1922 3030 432 692
1935 3022 405 696
1947 3023 434 700
1961 3025 386 704
1972 3030 385 708
1986 3036 409 712
2005 3044 346 716
2011 3052 392 720
2032 3066 340 724
2046 3080 391 728
2069 3091 401 732
2079 3113 405 736
2096 3115 423 740
2112 3127 425 744
2133 3138 351 748
2150 3143 400 752
2181 3153 426 756
2201 3161 331 760
2220 3160 365 764
2241 3163 368 768
2261 3164 433 772
2278 3163 387 776
2301 3168 327 780
2323 3161 387 784
2338 3160 372 788
2357 3157 379 792
2383 3163 319 796
2390 3160 374 800
2402 3162 418 804
2419 3170 397 808
2429 3164 419 812
2439 3169 432 816
2448 3168 402 820
2464 3173 359 824
2470 3169 352 828
2483 3164 349 832
2495 3158 350 836
2512 3148 350 840
2526 3140 350 844
2532 3124 245 848
2545 3114 311 852
2555 3096 263 856
2574 3072 343 860
2584 3049 378 864
2592 3027 323 868
2601 3003 340 872
2609 2975 332 876
2615 2944 317 880
2623 2921 351 884
2630 2879 443 888
2638 2862 409 892
2644 2833 388 896
2646 2812 406 900
2646 2786 482 904
2652 2767 427 908
2648 2745 430 912
2652 2730 462 916
2650 2714 420 920
2657 2704 426 924
2657 2695 451 928
2657 2685 468 932
2657 2679 473 936
2663 2673 479 940
2663 2671 486 944
2659 2671 543 948
2663 2668 552 952
2659 2668 566 956
2659 2666 569 960
2661 2667 590 964
2661 2665 607 968
2659 2666 616 972
2659 2664 622 976
2657 2665 630 980
2659 2665 627 984
2661 2667 601 988
2661 2674 566 992
2659 2680 547 996
2659 2691 514 1000
2663 2703 446 1004
2663 2717 438 1008
2667 2737 377 1012
2667 2750 418 1016
2673 2769 362 1020
2673 2786 319 1024
2671 2802 336 1028
2673 2825 350 1032
2671 2847 334 1036
2669 2874 370 1040
2669 2919 424 1044
2669 2955 402 1048
2663 2996 438 1052
2661 3033 445 1056
2659 3072 413 1060
2661 3107 470 1064
2665 3141 401 1068
2661 3185 432 1072
2663 3215 430 1076
2671 3247 423 1080
2675 3276 435 1084
2669 3300 443 1088
2686 3320 429 1092
2692 3341 446 1096
2700 3359 426 1100
2708 3369 453 1104
2717 3380 437 1108
2727 3389 465 1112
2733 3390 406 1116
2741 3397 378 1120
2752 3403 382 1124
2766 3405 339 1128
2770 3406 344 1132
2779 3408 368 1136
2787 3413 386 1140
2795 3410 395 1144
2803 3404 367 1148
2805 3393 320 1152
2824 3383 324 1156
2839 3363 242 1160
2857 3338 213 1164
2863 3312 238 1168
2882 3281 205 1172
2897 3245 350 1176
2907 3212 284 1180
2913 3182 294 1184
2928 3150 323 1188
2936 3122 373 1192
2940 3094 333 1196
2950 3056 341 1200
2963 3027 383 1204
2967 2996 342 1208
2977 2967 391 1212
2981 2940 372 1216
2990 2915 441 1220
2996 2888 489 1224
3006 2860 460 1228
3008 2839 460 1232
3012 2824 460 1236
3019 2808 474 1240
3017 2797 476 1244
3023 2785 479 1248
3027 2777 524 1252
3029 2766 498 1256
3033 2761 511 1260
3027 2756 510 1264
3025 2753 515 1268
3027 2751 540 1272
3025 2751 569 1276
3023 2751 564 1280
3023 2750 571 1284
3027 2748 576 1288
3027 2748 583 1292
3025 2747 594 1296
3027 2747 597 1300
3027 2746 611 1304
3025 2745 619 1308
3025 2745 621 1312
3023 2746 619 1316
3027 2746 625 1320
3021 2747 619 1324
3025 2748 611 1328
3025 2751 590 1332
3025 2753 569 1336
3021 2758 565 1340
3023 2761 557 1344
3023 2769 548 1348
3025 2776 520 1352
3025 2786 494 1356
3023 2800 447 1360
3027 2811 347 1364
3025 2828 407 1368
3031 2840 357 1372
3025 2855 327 1376
3031 2868 263 1380
3029 2889 292 1384
3029 2902 255 1388
3025 2915 274 1392
3027 2926 251 1396
3025 2939 220 1400
3025 2952 256 1404
3025 2965 231 1408
3021 2979 243 1412
3025 2996 242 1416
3021 3012 263 1420
3023 3029 276 1424
3023 3048 324 1428
3021 3071 361 1432
3021 3096 332 1436
3023 3121 355 1440
3025 3147 301 1444
3019 3173 370 1448
3019 3197 380 1452
3017 3221 347 1456
3021 3247 378 1460
3023 3278 409 1464
3029 3303 390 1468
3031 3322 420 1472
3035 3339 401 1476
3037 3352 423 1480
3045 3362 433 1484
3045 3372 434 1488
3050 3377 444 1492
3052 3379 456 1496
3052 3381 478 1500
3054 3381 486 1504
3052 3381 482 1508
3060 3380 490 1512
3064 3379 456 1516
3068 3382 447 1520
3068 3381 420 1524
3072 3383 438 1528
3076 3384 412 1532
3079 3388 418 1536
3085 3390 383 1540
3089 3394 370 1544
3097 3399 385 1548
3101 3404 347 1552
3112 3412 374 1556
3114 3419 392 1560
3114 3428 361 1564
3120 3439 414 1568
3122 3444 391 1572
3118 3449 424 1576
3126 3454 350 1580
3130 3456 401 1584
3132 3458 426 1588
3139 3459 393 1592
3145 3460 419 1596
3151 3456 415 1600
3159 3450 439 1604
3161 3441 439 1608
3170 3437 435 1612
3170 3425 267 1616
3194 3406 137 1620
3194 3393 183 1624
3192 3381 206 1628
3213 3364 118 1632
3207 3349 138 1636
3215 3333 117 1640
3225 3312 94 1644
3223 3300 183 1648
3232 3297 178 1652
3236 3275 148 1656
3242 3283 247 1660
3236 3276 184 1664
3244 3274 234 1668
3254 3264 245 1672
3252 3252 303 1676
3254 3247 269 1680
3256 3241 309 1684
3265 3230 250 1688
3267 3220 262 1692
3277 3205 248 1696
3290 3192 157 1700
3292 3182 270 1704
3298 3162 272 1708
3302 3147 243 1712
3308 3128 301 1716
3308 3105 302 1720
3321 3082 356 1724
3323 3061 301 1728
3329 3036 366 1732
3331 3006 355 1736
3339 2990 438 1740
3337 2973 501 1744
3339 2960 446 1748
3345 2948 470 1752
3345 2940 452 1756
3350 2933 494 1760
3352 2927 481 1764
3352 2922 465 1768
3350 2920 479 1772
3350 2917 475 1776
3354 2915 513 1780
3354 2915 530 1784
3354 2910 545 1788
3354 2909 570 1792
3354 2908 584 1796
3354 2904 565 1800
3354 2896 294 1804
2944 2484 0 2620
2944 2480 42 2624
2944 2481 89 2628
2942 2478 170 2632
2946 2478 136 2636
2946 2467 118 2640
2952 2449 37 2644
2965 2436 41 2648
2973 2418 204 2652
2992 2399 220 2656
3000 2372 147 2660
3027 2351 255 2664
3045 2324 272 2668
3070 2296 322 2672
3101 2262 357 2676
3141 2219 294 2680
3176 2176 182 2684
3302 2967 0 3756
3302 2972 1 3760
3304 2972 1 3764
3304 2973 1 3768
3306 2974 1 3772
3302 2973 1 3776
3302 2974 1 3780
3300 2975 5 3784
3296 2976 101 3788
3296 2976 106 3792
3298 2976 107 3796
3294 2976 128 3800
3302 2974 141 3804
3296 2976 151 3808
3298 2975 151 3812
3298 2975 160 3816
3296 2976 177 3820
3298 2975 143 3824
3298 2974 164 3828
3298 2974 203 3832
3306 2971 209 3836
3306 2970 204 3840
3312 2953 62 3844
3321 2938 119 3848
3333 2916 222 3852
3343 2890 303 3856
3360 2858 216 3860
3387 2822 239 3864
3407 2781 321 3868
3455 2728 368 3872
3490 2685 389 3876
3530 2640 357 3880
3561 2594 412 3884
3592 2548 463 3888
3631 2506 390 3892
3660 2464 470 3896
3703 2413 363 3900
3730 2370 337 3904
3753 2327 360 3908
3794 2288 340 3912
3815 2245 414 3916
3823 2206 390 3920
3867 2158 402 3924
3890 2120 385 3928
3908 2080 399 3932
3927 2048 415 3936
3943 2022 445 3940
3956 2000 387 3944
3968 1980 367 3948
3974 1967 424 3952
3981 1961 450 3956
3981 1953 477 3960
3983 1953 499 3964
3983 1953 529 3968
3985 1951 546 3972
3981 1952 556 3976
3981 1951 540 3980
3976 1953 530 3984
3970 1960 486 3988
3960 1974 364 3992
3947 2000 379 3996
3935 2021 155 4000
3916 2062 244 4004
3906 2095 260 4008
3892 2128 174 4012
3877 2162 358 4016
3865 2204 395 4020
3852 2251 441 4024
3827 2306 387 4028
3823 2363 396 4032
3807 2418 461 4036
3792 2480 431 4040
3784 2542 449 4044
3770 2603 455 4048
3761 2662 438 4052
3751 2736 433 4056
3743 2794 395 4060
3741 2850 453 4064
3734 2904 463 4068
3732 2951 434 4072
3738 2995 445 4076
3736 3044 442 4080
3734 3080 458 4084
3736 3108 418 4088
3728 3136 408 4092
3736 3162 433 4096
3736 3183 404 4100
3738 3202 403 4104
3741 3224 384 4108
3741 3236 404 4112
3741 3246 406 4116
3741 3251 395 4120
3736 3256 431 4124
3741 3258 440 4128
3741 3261 457 4132
3743 3260 450 4136
3738 3262 465 4140
3738 3262 490 4144
3738 3264 504 4148
3738 3265 503 4152
3743 3268 483 4156
3732 3263 441 4160
3728 3260 413 4164
3726 3257 405 4168
3720 3249 384 4172
3714 3242 297 4176
3712 3227 201 4180
3707 3216 181 4184
3693 3205 211 4188
3685 3191 138 4192
3670 3180 154 4196
3672 3175 122 4200
3666 3159 7 4204
3662 3148 16 4208
3652 3131 42 4212
3643 3126 75 4216
3641 3110 66 4220
3631 3113 107 4224
3637 3111 207 4228
3639 3105 132 4232
3633 3106 163 4236
3635 3103 247 4240
3635 3100 251 4244
3631 3102 232 4248
3633 3100 231 4252
3633 3099 263 4256
3635 3099 279 4260
3633 3098 295 4264
3635 3097 327 4268
3631 3098 306 4272
3633 3099 320 4276
3625 3099 337 4280
3625 3107 249 4284
3625 3111 246 4288
3619 3121 289 4292
3610 3133 228 4296
3612 3142 38 4300
3608 3169 63 4304
3606 3171 41 4308
3612 3185 109 4312
3614 3196 97 4316
3604 3215 54 4320
3610 3224 140 4324
3614 3226 107 4328
3627 3232 145 4332
3635 3241 150 4336
3629 3246 112 4340
3647 3248 142 4344
3664 3253 125 4348
3672 3249 105 4352
3689 3250 87 4356
3705 3259 115 4360
3722 3258 49 4364
3738 3246 223 4368
3765 3246 167 4372
3780 3239 200 4376
3803 3224 49 4380
3825 3213 172 4384
3856 3201 243 4388
3887 3186 266 4392
3923 3157 280 4396
3947 3135 260 4400
3981 3114 225 4404
4001 3092 278 4408
4026 3070 294 4412
4049 3050 292 4416
4072 3023 254 4420
4082 3006 296 4424
4096 2988 229 4428
4107 2973 279 4432
4117 2954 240 4436
4121 2939 174 4440
4129 2922 178 4444
4132 2902 169 4448
4138 2890 109 4452
4142 2877 151 4456
4148 2863 98 4460
4150 2855 57 4464
4148 2847 123 4468
4144 2840 167 4472
4150 2836 193 4476
4148 2835 230 4480
4152 2832 232 4484
4146 2830 300 4488
4148 2829 281 4492
4154 2828 237 4496
4152 2829 262 4500
4154 2825 252 4504
4154 2825 278 4508
4150 2825 316 4512
4150 2824 345 4516
4150 2822 378 4520
4150 2821 376 4524
4154 2824 321 4528
4154 2825 333 4532
4156 2830 357 4536
4150 2831 349 4540
4154 2840 253 4544
4156 2847 204 4548
4163 2853 162 4552
4165 2858 162 4556
4165 2867 137 4560
4173 2882 68 4564
4175 2891 50 4568
4175 2904 9 4572
4177 2921 77 4576
4185 2940 116 4580
4183 2956 20 4584
4183 2981 102 4588
4187 3006 132 4592
4189 3036 205 4596
4185 3065 228 4600
4185 3102 237 4604
4187 3132 297 4608
4185 3158 298 4612
4189 3185 313 4616
4196 3208 255 4620
4196 3229 311 4624
4194 3248 313 4628
4192 3272 359 4632
4206 3289 398 4636
4189 3303 402 4640
4221 3315 397 4644
4229 3317 272 4648
4239 3330 312 4652
4252 3336 260 4656
4262 3345 279 4660
4274 3348 248 4664
4287 3349 323 4668
4276 3349 333 4672
4312 3353 256 4676
4320 3355 219 4680
4338 3353 226 4684
4349 3351 270 4688
4359 3348 311 4692
4380 3345 346 4696
4390 3344 340 4700
4403 3335 317 4704
4423 3331 317 4708
4436 3325 307 4712
4446 3314 299 4716
4458 3306 317 4720
4481 3301 335 4724
4498 3289 284 4728
4510 3274 336 4732
4535 3258 264 4736
4556 3241 345 4740
4578 3215 363 4744
4612 3193 309 4748
4645 3161 391 4752
4678 3125 390 4756
4721 3083 395 4760
4758 3045 382 4764
4798 3005 419 4768
4829 2961 434 4772
4866 2913 407 4776
4903 2864 420 4780
4940 2819 344 4784
4976 2751 349 4788
5003 2697 416 4792
5034 2644 406 4796
5056 2585 398 4800
5079 2526 413 4804
5112 2471 434 4808
5129 2394 402 4812
5147 2340 394 4816
5164 2288 344 4820
5187 2236 398 4824
5193 2192 437 4828
5205 2150 459 4832
5209 2115 426 4836
5214 2081 429 4840
5216 2058 406 4844
5207 2041 453 4848
5207 2028 462 4852
5201 2021 477 4856
5189 2024 455 4860
5174 2018 369 4864
5151 2025 325 4868
5118 2041 214 4872
5083 2066 185 4876
5065 2094 129 4880
5027 2136 206 4884
5005 2176 351 4888
4963 2245 398 4892
4930 2315 400 4896
4891 2388 371 4900
4858 2469 402 4904
4831 2549 426 4908
4802 2630 421 4912
4783 2718 457 4916
4765 2825 482 4920
4752 2911 431 4924
4756 2995 460 4928
4767 3064 388 4932
4777 3132 457 4936
4800 3184 486 4940
4841 3234 274 4944
4889 3270 352 4948
4945 3293 346 4952
5011 3296 332 4956
5089 3292 322 4960
5166 3275 329 4964
5251 3248 382 4968
5360 3196 343 4972
5445 3146 393 4976
5534 3095 409 4980
5623 3036 394 4984
5708 2964 192 4988
4233 2491 0 5452
4225 2488 362 5456
4227 2489 394 5460
4225 2489 456 5464
4223 2489 523 5468
4227 2490 508 5472
4233 2483 424 5476
4243 2477 315 5480
