PWD /home/jirka/programovani/BIO/podpis/Cv3_Podpis/report
INPUT /usr/share/texmf-dist/web2c/texmf.cnf
INPUT /var/lib/texmf/web2c/pdftex/pdflatex.fmt
INPUT /home/jirka/programovani/BIO/podpis/Cv3_Podpis/report/report.tex
OUTPUT report.log
INPUT /usr/share/texmf-dist/tex/latex/base/article.cls
INPUT /usr/share/texmf-dist/tex/latex/base/article.cls
INPUT /usr/share/texmf-dist/tex/latex/base/article.cls
INPUT /usr/share/texmf-dist/tex/latex/base/article.cls
INPUT /usr/share/texmf-dist/tex/latex/base/article.cls
INPUT /usr/share/texmf-dist/tex/latex/base/article.cls
INPUT /usr/share/texmf-dist/tex/latex/base/article.cls
INPUT /usr/share/texmf-dist/tex/latex/base/article.cls
INPUT /usr/share/texmf-dist/tex/latex/base/article.cls
INPUT /usr/share/texmf-dist/tex/latex/base/article.cls
INPUT /usr/share/texmf-dist/tex/latex/base/article.cls
INPUT /usr/share/texmf-dist/tex/latex/base/size10.clo
INPUT /usr/share/texmf-dist/tex/latex/base/size10.clo
INPUT /usr/share/texmf-dist/tex/latex/base/size10.clo
INPUT /usr/share/texmf-dist/tex/latex/base/size10.clo
INPUT /usr/share/texmf-dist/tex/latex/graphics/graphicx.sty
INPUT /usr/share/texmf-dist/tex/latex/graphics/graphicx.sty
INPUT /usr/share/texmf-dist/tex/latex/graphics/graphicx.sty
INPUT /usr/share/texmf-dist/tex/latex/graphics/graphicx.sty
INPUT /usr/share/texmf-dist/tex/latex/graphics/graphicx.sty
INPUT /usr/share/texmf-dist/tex/latex/graphics/graphicx.sty
INPUT /usr/share/texmf-dist/tex/latex/graphics/graphicx.sty
INPUT /usr/share/texmf-dist/tex/latex/graphics/graphicx.sty
INPUT /usr/share/texmf-dist/tex/latex/graphics/graphicx.sty
INPUT /usr/share/texmf-dist/tex/latex/graphics/graphicx.sty
INPUT /usr/share/texmf-dist/tex/latex/graphics/graphicx.sty
INPUT /usr/share/texmf-dist/tex/latex/graphics/keyval.sty
INPUT /usr/share/texmf-dist/tex/latex/graphics/keyval.sty
INPUT /usr/share/texmf-dist/tex/latex/graphics/keyval.sty
INPUT /usr/share/texmf-dist/tex/latex/graphics/keyval.sty
INPUT /usr/share/texmf-dist/tex/latex/graphics/keyval.sty
INPUT /usr/share/texmf-dist/tex/latex/graphics/keyval.sty
INPUT /usr/share/texmf-dist/tex/latex/graphics/keyval.sty
INPUT /usr/share/texmf-dist/tex/latex/graphics/keyval.sty
INPUT /usr/share/texmf-dist/tex/latex/graphics/keyval.sty
INPUT /usr/share/texmf-dist/tex/latex/graphics/keyval.sty
INPUT /usr/share/texmf-dist/tex/latex/graphics/keyval.sty
INPUT /usr/share/texmf-dist/tex/latex/graphics/graphics.sty
INPUT /usr/share/texmf-dist/tex/latex/graphics/graphics.sty
INPUT /usr/share/texmf-dist/tex/latex/graphics/graphics.sty
INPUT /usr/share/texmf-dist/tex/latex/graphics/graphics.sty
INPUT /usr/share/texmf-dist/tex/latex/graphics/graphics.sty
INPUT /usr/share/texmf-dist/tex/latex/graphics/graphics.sty
INPUT /usr/share/texmf-dist/tex/latex/graphics/graphics.sty
INPUT /usr/share/texmf-dist/tex/latex/graphics/graphics.sty
INPUT /usr/share/texmf-dist/tex/latex/graphics/graphics.sty
INPUT /usr/share/texmf-dist/tex/latex/graphics/graphics.sty
INPUT /usr/share/texmf-dist/tex/latex/graphics/graphics.sty
INPUT /usr/share/texmf-dist/tex/latex/graphics/trig.sty
INPUT /usr/share/texmf-dist/tex/latex/graphics/trig.sty
INPUT /usr/share/texmf-dist/tex/latex/graphics/trig.sty
INPUT /usr/share/texmf-dist/tex/latex/graphics/trig.sty
INPUT /usr/share/texmf-dist/tex/latex/graphics/trig.sty
INPUT /usr/share/texmf-dist/tex/latex/graphics/trig.sty
INPUT /usr/share/texmf-dist/tex/latex/graphics/trig.sty
INPUT /usr/share/texmf-dist/tex/latex/graphics/trig.sty
INPUT /usr/share/texmf-dist/tex/latex/graphics/trig.sty
INPUT /usr/share/texmf-dist/tex/latex/graphics/trig.sty
INPUT /usr/share/texmf-dist/tex/latex/graphics/trig.sty
INPUT /usr/share/texmf-dist/tex/latex/graphics-cfg/graphics.cfg
INPUT /usr/share/texmf-dist/tex/latex/graphics-cfg/graphics.cfg
INPUT /usr/share/texmf-dist/tex/latex/graphics-cfg/graphics.cfg
INPUT /usr/share/texmf-dist/tex/latex/graphics-cfg/graphics.cfg
INPUT /usr/share/texmf-dist/tex/latex/graphics-def/pdftex.def
INPUT /usr/share/texmf-dist/tex/latex/graphics-def/pdftex.def
INPUT /usr/share/texmf-dist/tex/latex/graphics-def/pdftex.def
INPUT /usr/share/texmf-dist/tex/latex/graphics-def/pdftex.def
INPUT /usr/share/texmf-dist/tex/latex/subfig/subfig.sty
INPUT /usr/share/texmf-dist/tex/latex/subfig/subfig.sty
INPUT /usr/share/texmf-dist/tex/latex/subfig/subfig.sty
INPUT /usr/share/texmf-dist/tex/latex/subfig/subfig.sty
INPUT /usr/share/texmf-dist/tex/latex/subfig/subfig.sty
INPUT /usr/share/texmf-dist/tex/latex/subfig/subfig.sty
INPUT /usr/share/texmf-dist/tex/latex/subfig/subfig.sty
INPUT /usr/share/texmf-dist/tex/latex/subfig/subfig.sty
INPUT /usr/share/texmf-dist/tex/latex/subfig/subfig.sty
INPUT /usr/share/texmf-dist/tex/latex/subfig/subfig.sty
INPUT /usr/share/texmf-dist/tex/latex/subfig/subfig.sty
INPUT /usr/share/texmf-dist/tex/latex/graphics/keyval.sty
INPUT /usr/share/texmf-dist/tex/latex/caption/caption.sty
INPUT /usr/share/texmf-dist/tex/latex/caption/caption.sty
INPUT /usr/share/texmf-dist/tex/latex/caption/caption.sty
INPUT /usr/share/texmf-dist/tex/latex/caption/caption.sty
INPUT /usr/share/texmf-dist/tex/latex/caption/caption.sty
INPUT /usr/share/texmf-dist/tex/latex/caption/caption.sty
INPUT /usr/share/texmf-dist/tex/latex/caption/caption.sty
INPUT /usr/share/texmf-dist/tex/latex/caption/caption.sty
INPUT /usr/share/texmf-dist/tex/latex/caption/caption.sty
INPUT /usr/share/texmf-dist/tex/latex/caption/caption.sty
INPUT /usr/share/texmf-dist/tex/latex/caption/caption.sty
INPUT /usr/share/texmf-dist/tex/latex/caption/caption3.sty
INPUT /usr/share/texmf-dist/tex/latex/caption/caption3.sty
INPUT /usr/share/texmf-dist/tex/latex/caption/caption3.sty
INPUT /usr/share/texmf-dist/tex/latex/caption/caption3.sty
INPUT /usr/share/texmf-dist/tex/latex/caption/caption3.sty
INPUT /usr/share/texmf-dist/tex/latex/caption/caption3.sty
INPUT /usr/share/texmf-dist/tex/latex/caption/caption3.sty
INPUT /usr/share/texmf-dist/tex/latex/caption/caption3.sty
INPUT /usr/share/texmf-dist/tex/latex/caption/caption3.sty
INPUT /usr/share/texmf-dist/tex/latex/caption/caption3.sty
INPUT /usr/share/texmf-dist/tex/latex/caption/caption3.sty
INPUT /usr/share/texmf-dist/tex/latex/graphics/keyval.sty
INPUT /usr/share/texmf-dist/tex/latex/float/float.sty
INPUT /usr/share/texmf-dist/tex/latex/float/float.sty
INPUT /usr/share/texmf-dist/tex/latex/float/float.sty
INPUT /usr/share/texmf-dist/tex/latex/float/float.sty
INPUT /usr/share/texmf-dist/tex/latex/float/float.sty
INPUT /usr/share/texmf-dist/tex/latex/float/float.sty
INPUT /usr/share/texmf-dist/tex/latex/float/float.sty
INPUT /usr/share/texmf-dist/tex/latex/float/float.sty
INPUT /usr/share/texmf-dist/tex/latex/float/float.sty
INPUT /usr/share/texmf-dist/tex/latex/float/float.sty
INPUT /usr/share/texmf-dist/tex/latex/float/float.sty
INPUT /usr/share/texmf-dist/tex/latex/blindtext/blindtext.sty
INPUT /usr/share/texmf-dist/tex/latex/blindtext/blindtext.sty
INPUT /usr/share/texmf-dist/tex/latex/blindtext/blindtext.sty
INPUT /usr/share/texmf-dist/tex/latex/blindtext/blindtext.sty
INPUT /usr/share/texmf-dist/tex/latex/blindtext/blindtext.sty
INPUT /usr/share/texmf-dist/tex/latex/blindtext/blindtext.sty
INPUT /usr/share/texmf-dist/tex/latex/blindtext/blindtext.sty
INPUT /usr/share/texmf-dist/tex/latex/blindtext/blindtext.sty
INPUT /usr/share/texmf-dist/tex/latex/blindtext/blindtext.sty
INPUT /usr/share/texmf-dist/tex/latex/blindtext/blindtext.sty
INPUT /usr/share/texmf-dist/tex/latex/blindtext/blindtext.sty
INPUT /usr/share/texmf-dist/tex/latex/tools/xspace.sty
INPUT /usr/share/texmf-dist/tex/latex/tools/xspace.sty
INPUT /usr/share/texmf-dist/tex/latex/tools/xspace.sty
INPUT /usr/share/texmf-dist/tex/latex/tools/xspace.sty
INPUT /usr/share/texmf-dist/tex/latex/tools/xspace.sty
INPUT /usr/share/texmf-dist/tex/latex/tools/xspace.sty
INPUT /usr/share/texmf-dist/tex/latex/tools/xspace.sty
INPUT /usr/share/texmf-dist/tex/latex/tools/xspace.sty
INPUT /usr/share/texmf-dist/tex/latex/tools/xspace.sty
INPUT /usr/share/texmf-dist/tex/latex/tools/xspace.sty
INPUT /usr/share/texmf-dist/tex/latex/tools/xspace.sty
INPUT /usr/share/texmf-dist/tex/latex/geometry/geometry.sty
INPUT /usr/share/texmf-dist/tex/latex/geometry/geometry.sty
INPUT /usr/share/texmf-dist/tex/latex/geometry/geometry.sty
INPUT /usr/share/texmf-dist/tex/latex/geometry/geometry.sty
INPUT /usr/share/texmf-dist/tex/latex/geometry/geometry.sty
INPUT /usr/share/texmf-dist/tex/latex/geometry/geometry.sty
INPUT /usr/share/texmf-dist/tex/latex/geometry/geometry.sty
INPUT /usr/share/texmf-dist/tex/latex/geometry/geometry.sty
INPUT /usr/share/texmf-dist/tex/latex/geometry/geometry.sty
INPUT /usr/share/texmf-dist/tex/latex/geometry/geometry.sty
INPUT /usr/share/texmf-dist/tex/latex/geometry/geometry.sty
INPUT /usr/share/texmf-dist/tex/latex/graphics/keyval.sty
INPUT /usr/share/texmf-dist/tex/generic/iftex/ifvtex.sty
INPUT /usr/share/texmf-dist/tex/generic/iftex/ifvtex.sty
INPUT /usr/share/texmf-dist/tex/generic/iftex/ifvtex.sty
INPUT /usr/share/texmf-dist/tex/generic/iftex/ifvtex.sty
INPUT /usr/share/texmf-dist/tex/generic/iftex/ifvtex.sty
INPUT /usr/share/texmf-dist/tex/generic/iftex/ifvtex.sty
INPUT /usr/share/texmf-dist/tex/generic/iftex/ifvtex.sty
INPUT /usr/share/texmf-dist/tex/generic/iftex/ifvtex.sty
INPUT /usr/share/texmf-dist/tex/generic/iftex/ifvtex.sty
INPUT /usr/share/texmf-dist/tex/generic/iftex/ifvtex.sty
INPUT /usr/share/texmf-dist/tex/generic/iftex/ifvtex.sty
INPUT /usr/share/texmf-dist/tex/generic/iftex/iftex.sty
INPUT /usr/share/texmf-dist/tex/generic/iftex/iftex.sty
INPUT /usr/share/texmf-dist/tex/generic/iftex/iftex.sty
INPUT /usr/share/texmf-dist/tex/generic/iftex/iftex.sty
INPUT /usr/share/texmf-dist/tex/generic/iftex/iftex.sty
INPUT /usr/share/texmf-dist/tex/generic/iftex/iftex.sty
INPUT /usr/share/texmf-dist/tex/generic/iftex/iftex.sty
INPUT /usr/share/texmf-dist/tex/generic/iftex/iftex.sty
INPUT /usr/share/texmf-dist/tex/generic/iftex/iftex.sty
INPUT /usr/share/texmf-dist/tex/generic/iftex/iftex.sty
INPUT /usr/share/texmf-dist/tex/generic/iftex/iftex.sty
